<svg width="193" height="192" viewBox="0 0 193 192" fill="none" xmlns="http://www.w3.org/2000/svg">
<g id="Group 411">
<circle id="Ellipse 1" opacity="0.1" cx="96.444" cy="95.7273" r="95.6315" fill="#CB2929"/>
<g id="healthicons:world-care-outline">
<path id="Vector" fill-rule="evenodd" clip-rule="evenodd" d="M96.2503 99.6476H96.4062C107.17 99.6476 115.895 90.9224 115.895 80.1587C115.895 69.395 107.17 60.6698 96.4062 60.6698H96.2503C85.5587 60.7536 76.9173 69.4476 76.9173 80.1587C76.9173 90.8698 85.5587 99.5638 96.2503 99.6476ZM111.876 82.1076H107.979C107.873 83.8869 107.624 85.5961 107.25 87.2039H110.317C111.128 85.608 111.655 83.8837 111.876 82.1076ZM107.511 91.1017H106.02C105.734 91.8091 105.416 92.4815 105.077 93.1188C105.955 92.5303 106.771 91.8545 107.513 91.1017H107.511ZM103.229 87.2039C103.654 85.6507 103.95 83.9376 104.073 82.1076H98.3551V87.2039H103.229ZM98.3551 91.1017H101.734C101.584 91.3901 101.43 91.6669 101.271 91.9339C100.296 93.5534 99.2886 94.5551 98.3551 95.1223V91.1017ZM94.4573 87.2039V82.1076H88.6145C88.7373 83.9376 89.0335 85.6507 89.4584 87.2039H94.4573ZM90.9532 91.1017H94.4573V95.1944C93.4906 94.6428 92.4343 93.6275 91.417 91.9339C91.2539 91.6613 91.0992 91.3838 90.9532 91.1017ZM85.4378 87.2039C85.052 85.5287 84.8082 83.8238 84.709 82.1076H80.9359C81.162 83.92 81.6999 85.639 82.495 87.2039H85.4378ZM85.3014 91.1017H86.6656C86.9346 91.7604 87.2269 92.388 87.5407 92.9843C86.7366 92.428 85.9882 91.7977 85.3014 91.1017ZM107.979 78.2098C107.88 76.4935 107.636 74.7887 107.25 73.1135H110.317C111.128 74.7091 111.656 76.4336 111.876 78.2098H107.979ZM107.511 69.2157H106.02C105.734 68.5082 105.416 67.8359 105.077 67.1986C105.956 67.7891 106.772 68.4654 107.513 69.2157H107.511ZM98.3551 69.2157H101.734C101.588 68.9336 101.434 68.656 101.271 68.3835C100.296 66.762 99.2886 65.7622 98.3551 65.1951V69.2157ZM103.229 73.1135H98.3551V78.2098H104.073C103.961 76.4873 103.679 74.7801 103.229 73.1135ZM94.4573 65.123V69.2157H90.9532C91.1033 68.9272 91.2592 68.6505 91.417 68.3835C92.4324 66.6899 93.4906 65.6765 94.4573 65.123ZM94.4573 73.1135H89.4584C89.0335 74.6667 88.7373 76.3798 88.6145 78.2098H94.4573V73.1135ZM87.5387 67.3331C87.2269 67.9294 86.9346 68.557 86.6676 69.2157H85.3014C85.9855 68.5199 86.7338 67.8904 87.5387 67.3331ZM85.4378 73.1135H82.495C81.6847 74.7094 81.1572 76.4337 80.9359 78.2098H84.709C84.8142 76.4285 85.0636 74.7213 85.4378 73.1135ZM66.5843 82.1076C64.5613 82.0608 62.5306 83.3022 61.8738 85.2355C61.7101 85.7189 61.6205 86.3503 61.5561 86.9252C61.4879 87.5528 61.4353 88.307 61.3944 89.1275C61.3099 91.0063 61.2664 92.8868 61.2638 94.7676C61.2482 98.7004 61.3476 102.793 61.4899 104.062C61.7393 106.284 63.0178 108.353 64.1287 110.154L64.2534 110.355C64.5906 110.9 64.9238 111.444 65.2512 112.004C66.7207 114.52 68.3188 116.215 69.7668 117.753L69.7999 117.786C70.6146 118.649 71.3688 119.452 72.0801 120.347C71.3901 121.071 71.0061 122.034 71.0083 123.034V126.932C71.0083 127.966 71.4189 128.957 72.1499 129.688C72.8809 130.419 73.8723 130.83 74.906 130.83H90.4972C91.5309 130.83 92.5223 130.419 93.2533 129.688C93.9843 128.957 94.3949 127.966 94.3949 126.932V123.034C94.3949 122.048 94.0208 121.098 93.3481 120.376C92.6754 119.655 91.7541 119.215 90.77 119.146C90.5069 116.932 90.1658 113.943 90.1347 113.091C90.1074 112.358 89.8618 111.643 89.6318 111.099C89.3905 110.539 89.1132 109.995 88.8016 109.47C88.4813 108.925 88.138 108.394 87.7726 107.878L87.6966 107.772L87.6771 107.743L87.6693 107.734L87.6654 107.728L87.6459 107.7L81.3237 99.7294L81.2653 99.671V99.6671L81.2575 99.6593L81.2107 99.6086C80.92 99.287 80.6405 98.9555 80.3727 98.6147C79.7763 97.8698 79.2566 97.0667 78.8214 96.2175C78.377 95.3055 77.5351 94.4304 76.243 94.3661C75.1419 94.3076 74.2785 94.8923 73.7757 95.3425C73.4988 95.5921 73.2462 95.8675 73.0215 96.1649L72.9338 94.9917L72.924 94.8631C72.733 92.2944 72.5011 89.1859 71.7469 86.6972C70.8621 83.7856 68.8957 82.1641 66.5823 82.1095L66.5843 82.1076ZM86.843 119.136C86.5896 116.993 86.2739 114.192 86.2388 113.233C86.2318 113.176 86.2194 113.119 86.2018 113.064C86.1574 112.909 86.1034 112.757 86.04 112.61C85.8643 112.207 85.6632 111.817 85.4378 111.44C85.1751 110.993 84.8936 110.558 84.594 110.135L84.5433 110.062L78.3692 102.279L78.3341 102.24C77.9777 101.845 77.6352 101.438 77.3071 101.02C76.7819 100.354 76.2995 99.6554 75.8629 98.9284L75.8493 98.9499C75.6739 99.2753 75.5765 99.5735 75.5472 99.7684C75.44 100.458 75.4946 100.934 75.5492 101.191C75.5656 101.273 75.5884 101.354 75.6174 101.433V101.439L79.1877 108.529L75.8727 110.554L75.824 110.487L75.6895 110.302C74.9937 109.343 74.3051 108.378 73.6237 107.408C72.4407 105.724 71.0258 103.658 70.3281 102.419C69.8058 101.493 69.5641 100.267 69.4102 99.1584C69.2514 97.8839 69.1311 96.6048 69.0496 95.323L69.0457 95.2801C68.843 92.5556 68.6326 89.8622 68.0167 87.8295C67.7478 86.9428 67.4009 86.4965 67.1514 86.2802C66.9721 86.1124 66.7381 86.0155 66.4927 86.0073C65.9606 85.9937 65.6079 86.362 65.5631 86.4945C65.5592 86.5062 65.5416 86.5725 65.5163 86.7167C65.4811 86.9256 65.4525 87.1355 65.4305 87.3462C65.374 87.8685 65.3253 88.5389 65.2863 89.3224C65.2059 91.1415 65.1649 92.9622 65.1635 94.7832C65.146 98.7569 65.2532 102.622 65.3662 103.627C65.5065 104.884 66.29 106.227 67.5724 108.308L67.5782 108.318C67.9095 108.856 68.2662 109.435 68.6189 110.039C69.8526 112.152 71.1817 113.568 72.6375 115.112L72.6707 115.147C73.7542 116.297 74.9314 117.544 76.0422 119.136H86.843ZM76.4651 98.1781C76.4651 98.1781 76.4574 98.1801 76.4437 98.1918C76.4514 98.1881 76.4586 98.1835 76.4651 98.1781ZM90.4972 126.932V123.034H74.906V126.932H90.4972ZM130.814 85.2355C130.155 83.3022 128.126 82.0608 126.103 82.1095C123.792 82.1641 121.826 83.7856 120.941 86.6972C120.187 89.1859 119.955 92.2944 119.764 94.8631L119.754 94.9917L119.666 96.1649C119.432 95.8589 119.179 95.5802 118.912 95.3425C118.409 94.8942 117.548 94.3096 116.445 94.3641C115.153 94.4304 114.311 95.3055 113.866 96.2156C113.43 97.0647 112.91 97.8678 112.313 98.6127C112.045 98.9543 111.766 99.2864 111.475 99.6086L111.43 99.6593L111.422 99.669L111.364 99.7294L105.044 107.7L105.022 107.728L105.018 107.734L105.012 107.743L104.991 107.772C104.597 108.32 104.228 108.886 103.886 109.468C103.574 109.993 103.296 110.538 103.054 111.099C102.826 111.643 102.58 112.358 102.553 113.091C102.522 113.943 102.183 116.932 101.918 119.146C100.934 119.215 100.012 119.655 99.3396 120.376C98.6669 121.098 98.2928 122.048 98.2927 123.034V126.932C98.2927 127.966 98.7034 128.957 99.4343 129.688C100.165 130.419 101.157 130.83 102.19 130.83H117.782C118.815 130.83 119.807 130.419 120.538 129.688C121.269 128.957 121.679 127.966 121.679 126.932V123.034C121.68 122.033 121.296 121.07 120.606 120.345C121.319 119.452 122.071 118.649 122.886 117.786L122.919 117.751C124.367 116.215 125.965 114.52 127.434 112.004C127.762 111.444 128.097 110.902 128.432 110.355L128.557 110.154C129.668 108.353 130.946 106.284 131.196 104.062C131.338 102.793 131.437 98.7004 131.422 94.7676C131.42 92.8868 131.377 91.0063 131.293 89.1275C131.26 88.392 131.206 87.6576 131.131 86.9252C131.069 86.3503 130.979 85.7169 130.814 85.2355ZM116.647 119.136C117.758 117.544 118.933 116.297 120.019 115.147L120.05 115.112C121.506 113.568 122.837 112.15 124.069 110.039C124.42 109.435 124.776 108.858 125.109 108.318L125.115 108.308C126.4 106.227 127.181 104.884 127.321 103.627C127.434 102.622 127.54 98.7569 127.524 94.7832C127.516 92.8226 127.479 90.8854 127.401 89.3224C127.362 88.5389 127.314 87.8685 127.257 87.3462C127.235 87.1355 127.206 86.9256 127.171 86.7167C127.159 86.6419 127.144 86.5678 127.125 86.4945C127.08 86.362 126.727 85.9937 126.197 86.0073C125.951 86.015 125.716 86.112 125.536 86.2802C125.287 86.4945 124.94 86.9428 124.671 87.8295C124.055 89.8603 123.845 92.5556 123.642 95.2801L123.638 95.323C123.541 96.656 123.439 98.0008 123.277 99.1584C123.125 100.267 122.882 101.493 122.361 102.421C121.662 103.658 120.247 105.724 119.064 107.41C118.382 108.379 117.694 109.343 116.998 110.302L116.862 110.487L116.815 110.554L113.5 108.527L117.068 101.439L117.07 101.433C117.099 101.354 117.122 101.273 117.138 101.191C117.193 100.934 117.248 100.458 117.14 99.7684C117.085 99.481 116.983 99.2045 116.838 98.9499L116.825 98.9284C116.345 99.7372 115.817 100.462 115.383 101.018C115.054 101.437 114.711 101.844 114.354 102.24L114.316 102.279L108.144 110.062L108.094 110.135C107.794 110.558 107.513 110.993 107.25 111.44C107.016 111.838 106.802 112.245 106.648 112.61C106.572 112.791 106.519 112.941 106.486 113.062C106.468 113.118 106.456 113.175 106.449 113.233C106.414 114.192 106.098 116.995 105.845 119.136H116.647ZM116.222 98.1781C116.222 98.1781 116.23 98.1801 116.244 98.1918C116.236 98.188 116.229 98.1835 116.222 98.1781ZM102.19 126.932V123.034H117.782V126.932H102.19Z" fill="#A52626"/>
</g>
</g>
</svg>
